\relax 
\providecommand\hyper@newdestlabel[2]{}
\providecommand\HyperFirstAtBeginDocument{\AtBeginDocument}
\HyperFirstAtBeginDocument{\ifx\hyper@anchor\@undefined
\global\let\oldcontentsline\contentsline
\gdef\contentsline#1#2#3#4{\oldcontentsline{#1}{#2}{#3}}
\global\let\oldnewlabel\newlabel
\gdef\newlabel#1#2{\newlabelxx{#1}#2}
\gdef\newlabelxx#1#2#3#4#5#6{\oldnewlabel{#1}{{#2}{#3}}}
\AtEndDocument{\ifx\hyper@anchor\@undefined
\let\contentsline\oldcontentsline
\let\newlabel\oldnewlabel
\fi}
\fi}
\global\let\hyper@last\relax 
\gdef\HyperFirstAtBeginDocument#1{#1}
\providecommand\HyField@AuxAddToFields[1]{}
\providecommand\HyField@AuxAddToCoFields[2]{}
\citation{GeibGoldman09}
\citation{ramirez2009plan}
\citation{ramirez2011}
\citation{yin2004high}
\citation{banerjee2010mpr}
\citation{kaminka2002monitoring}
\citation{geib2005partial}
\citation{vattam2015case}
\citation{gal2012plan}
\citation{sohrabi2016plan}
\citation{ramirez2010probabilistic}
\@writefile{toc}{\contentsline {section}{\numberline {1}Introduction}{1}{section.1}}
\@writefile{toc}{\contentsline {section}{\numberline {2}Problem Statement}{1}{section.2}}
\newlabel{sec:problemstatement}{{2}{1}{Problem Statement}{section.2}{}}
\@writefile{toc}{\contentsline {subsection}{\numberline {2.1}Objective Function}{2}{subsection.2.1}}
\newlabel{sec:objectivefunction}{{2.1}{2}{Objective Function}{subsection.2.1}{}}
\@writefile{toc}{\contentsline {subsection}{\numberline {2.2}Example}{2}{subsection.2.2}}
\@writefile{lof}{\contentsline {figure}{\numberline {1}{\ignorespaces Top: An application domain where multiple undesirable states ($U_1$, $U_2$, $U_3$) are developing from states $S_1$, $S_5$ and $S_7$ respectively. Bottom: simplified version with a single undesirable state $U_1$ developing from state $S_{a3}$ within an observation sequence of user actions $a1, a2, \ldots  ,ai$ transitioning initial state $I$ to a goal state $G$\relax }}{2}{figure.caption.1}}
\providecommand*\caption@xref[2]{\@setref\relax\@undefined{#1}}
\newlabel{fig:problem}{{1}{2}{Top: An application domain where multiple undesirable states ($U_1$, $U_2$, $U_3$) are developing from states $S_1$, $S_5$ and $S_7$ respectively. Bottom: simplified version with a single undesirable state $U_1$ developing from state $S_{a3}$ within an observation sequence of user actions $a1, a2, \ldots ,ai$ transitioning initial state $I$ to a goal state $G$\relax }{figure.caption.1}{}}
\citation{sun2007recognizing}
\citation{hong2001goal}
\citation{GeibGoldman09}
\citation{ramirez2009plan}
\citation{ramirez2010probabilistic}
\citation{roberts2014}
\citation{richterWestphal10.jair.LAMA}
\@writefile{toc}{\contentsline {section}{\numberline {3}Critical Trigger Recognition Algorithm}{3}{section.3}}
\newlabel{sec:algorithm}{{3}{3}{Critical Trigger Recognition Algorithm}{section.3}{}}
\@writefile{lof}{\contentsline {figure}{\numberline {2}{\ignorespaces Process for determining whether an observed action is a critical trigger action.\relax }}{3}{figure.caption.3}}
\newlabel{fig:components}{{2}{3}{Process for determining whether an observed action is a critical trigger action.\relax }{figure.caption.3}{}}
\@writefile{toc}{\contentsline {subsection}{\numberline {3.1}Step 3: Run Mosaic to Produce Undesirable Plans}{3}{subsection.3.1}}
\newlabel{sec:mosaic}{{3.1}{3}{Step 3: Run Mosaic to Produce Undesirable Plans}{subsection.3.1}{}}
\citation{ramirez2009plan}
\@writefile{lot}{\contentsline {table}{\numberline {1}{\ignorespaces Certainty (C), timeliness (T), desirability (D) computations for each candidate trigger action in a synthetic example. $V(a)$ is the value returned by the critical trigger multi-objective function assuming equal weighting ($\alpha =[0.33,0.33,0.33]$), only C ($\alpha =[1,0,0]$), only T ($\alpha =[0,1,0]$) and only D ($\alpha =[0,0,1]$) for each candidate trigger action\relax }}{4}{table.caption.2}}
\newlabel{tab:metrics}{{1}{4}{Certainty (C), timeliness (T), desirability (D) computations for each candidate trigger action in a synthetic example. $V(a)$ is the value returned by the critical trigger multi-objective function assuming equal weighting ($\alpha =\lbrack 0.33,0.33,0.33\rbrack $), only C ($\alpha =\lbrack 1,0,0\rbrack $), only T ($\alpha =\lbrack 0,1,0\rbrack $) and only D ($\alpha =\lbrack 0,0,1\rbrack $) for each candidate trigger action\relax }{table.caption.2}{}}
\@writefile{toc}{\contentsline {subsection}{\numberline {3.2}Steps 4-8: Rank Potential Triggers}{4}{subsection.3.2}}
\@writefile{toc}{\contentsline {section}{\numberline {4}Evaluation}{4}{section.4}}
\@writefile{toc}{\contentsline {subsection}{\numberline {4.1}Dependent Variables}{4}{subsection.4.1}}
\citation{sasse2001transforming}
\citation{howe2012psychology}
\citation{Sheyner2002}
\citation{ramirez2009plan}
\@writefile{lot}{\contentsline {table}{\numberline {2}{\ignorespaces Independent variables for evaluating impact of algorithm parameters and sensitivity to noisy data\relax }}{5}{table.caption.4}}
\newlabel{tab:exp}{{2}{5}{Independent variables for evaluating impact of algorithm parameters and sensitivity to noisy data\relax }{table.caption.4}{}}
\@writefile{toc}{\contentsline {subsection}{\numberline {4.2}Computer Security Domain (PAG)}{5}{subsection.4.2}}
\@writefile{toc}{\contentsline {subparagraph}{PAG Results}{5}{section*.5}}
\@writefile{toc}{\contentsline {subsection}{\numberline {4.3}Benchmark Domains}{5}{subsection.4.3}}
\citation{hoffman2003ff}
\@writefile{toc}{\contentsline {subparagraph}{Trace Generation}{6}{section*.6}}
\@writefile{toc}{\contentsline {section}{\numberline {5}Benchmark Results}{6}{section.5}}
\@writefile{toc}{\contentsline {subsection}{\numberline {5.1}Ignoring Extraneous Actions}{6}{subsection.5.1}}
\newlabel{subsec:ignoreea}{{5.1}{6}{Ignoring Extraneous Actions}{subsection.5.1}{}}
\@writefile{toc}{\contentsline {subsection}{\numberline {5.2}Flagging Undesirable Actions}{6}{subsection.5.2}}
\citation{schmidt1978plan}
\citation{kautz1986generalized}
\citation{carberry2001plan}
\citation{GeibGoldman09}
\citation{lesh1996}
\citation{bauer1998acquisition}
\citation{hong2001goal}
\citation{sun2007recognizing}
\citation{blum1997fast}
\citation{ramirez2009plan}
\citation{ramirez2010probabilistic}
\citation{vattam2015error}
\@writefile{lot}{\contentsline {table}{\numberline {3}{\ignorespaces Mean Ignored EA\% (and standard deviation) for benchmark domains for levels of EA\% in observation trace and objective weight assignment classes\relax }}{7}{table.caption.7}}
\newlabel{tab:ignoredeaforlevels}{{3}{7}{Mean Ignored EA\% (and standard deviation) for benchmark domains for levels of EA\% in observation trace and objective weight assignment classes\relax }{table.caption.7}{}}
\@writefile{lot}{\contentsline {table}{\numberline {4}{\ignorespaces Flagged UP\% for traces with 0\% EA and 100\% PO for \texttt  {Block-words} (\texttt  {bw}), \texttt  {IPC-grid+} (\texttt  {ipc}), \texttt  {Logistics} (\texttt  {log}), and \texttt  {Grid-Navigation} (\texttt  {nav}) domains\relax }}{7}{table.caption.8}}
\newlabel{tab:flagupupperbound}{{4}{7}{Flagged UP\% for traces with 0\% EA and 100\% PO for \texttt {Block-words} (\texttt {bw}), \texttt {IPC-grid+} (\texttt {ipc}), \texttt {Logistics} (\texttt {log}), and \texttt {Grid-Navigation} (\texttt {nav}) domains\relax }{table.caption.8}{}}
\@writefile{toc}{\contentsline {subsection}{\numberline {5.3}Computational Overhead}{7}{subsection.5.3}}
\@writefile{lot}{\contentsline {table}{\numberline {6}{\ignorespaces Mean CPU time in seconds for problem factors for each domain. $\Delta $ is the difference between the min and max times for each domain.\relax }}{7}{table.caption.10}}
\newlabel{tab:cpu2}{{6}{7}{Mean CPU time in seconds for problem factors for each domain. $\Delta $ is the difference between the min and max times for each domain.\relax }{table.caption.10}{}}
\@writefile{toc}{\contentsline {section}{\numberline {6}Related Work}{7}{section.6}}
\citation{boddy2005course}
\citation{sohrabi2013hypothesis}
\citation{lucangeli2010attack}
\citation{hoffmann15}
\citation{GeibGoldman09}
\citation{goldman1997}
\citation{papadimitriou2015goals}
\@writefile{lot}{\contentsline {table}{\numberline {5}{\ignorespaces Mean Flagged UP\% (and standard deviation) for benchmark domains for levels of PO\% in observation trace and objective weight assignment classes\relax }}{8}{table.caption.9}}
\newlabel{tab:flaggedupforlevels}{{5}{8}{Mean Flagged UP\% (and standard deviation) for benchmark domains for levels of PO\% in observation trace and objective weight assignment classes\relax }{table.caption.9}{}}
\@writefile{toc}{\contentsline {section}{\numberline {7}Conclusion}{8}{section.7}}
\bibstyle{aaai}
\bibdata{refsicaps17.bib}
\bibcite{banerjee2010mpr}{\citeauthoryear {Banerjee, Kraemer, and Lyle}{2010}}
\bibcite{bauer1998acquisition}{\citeauthoryear {Bauer}{1998}}
\bibcite{blum1997fast}{\citeauthoryear {Blum and Furst}{1997}}
\bibcite{boddy2005course}{\citeauthoryear {Boddy \bgroup et al\unhbox \voidb@x \hbox {.}\egroup }{2005}}
\bibcite{carberry2001plan}{\citeauthoryear {Carberry}{2001}}
\bibcite{gal2012plan}{\citeauthoryear {Gal \bgroup et al\unhbox \voidb@x \hbox {.}\egroup }{2012}}
\bibcite{geib2005partial}{\citeauthoryear {Geib and Goldman}{2005}}
\bibcite{GeibGoldman09}{\citeauthoryear {Geib and Goldman}{2009}}
\bibcite{goldman1997}{\citeauthoryear {Goldman \bgroup et al\unhbox \voidb@x \hbox {.}\egroup }{1997}}
\bibcite{hoffman2003ff}{\citeauthoryear {Hoffmann}{2003}}
\bibcite{hoffmann15}{\citeauthoryear {Hoffmann}{2015}}
\bibcite{hong2001goal}{\citeauthoryear {Hong}{2001}}
\bibcite{howe2012psychology}{\citeauthoryear {Howe \bgroup et al\unhbox \voidb@x \hbox {.}\egroup }{2012}}
\bibcite{kaminka2002monitoring}{\citeauthoryear {Kaminka, Pynadath, and Tambe}{2002}}
\bibcite{kautz1986generalized}{\citeauthoryear {Kautz and Allen}{1986}}
\bibcite{lesh1996}{\citeauthoryear {Lesh and Etzioni}{1996}}
\bibcite{lucangeli2010attack}{\citeauthoryear {Obes, Sarraute, and Richarte}{2010}}
\bibcite{papadimitriou2015goals}{\citeauthoryear {Papadimitriou \bgroup et al\unhbox \voidb@x \hbox {.}\egroup }{2015}}
\bibcite{ramirez2009plan}{\citeauthoryear {Ram{\i }rez and Geffner}{2009}}
\bibcite{ramirez2010probabilistic}{\citeauthoryear {Ram{\i }rez and Geffner}{2010}}
\bibcite{ramirez2011}{\citeauthoryear {Ram\'{\i }rez and Geffner}{2011}}
\bibcite{richterWestphal10.jair.LAMA}{\citeauthoryear {Richter and Westphal}{2010}}
\bibcite{roberts2014}{\citeauthoryear {Roberts, Howe, and Ray}{2014}}
\bibcite{sasse2001transforming}{\citeauthoryear {Sasse, Brostoff, and Weirich}{2001}}
\bibcite{schmidt1978plan}{\citeauthoryear {Schmidt, Sridharan, and Goodson}{1978}}
\bibcite{Sheyner2002}{\citeauthoryear {Sheyner \bgroup et al\unhbox \voidb@x \hbox {.}\egroup }{2002}}
\bibcite{sohrabi2016plan}{\citeauthoryear {Sohrabi, Riabov, and Udrea}{2016}}
\bibcite{sohrabi2013hypothesis}{\citeauthoryear {Sohrabi, Udrea, and Riabov}{2013}}
\bibcite{sun2007recognizing}{\citeauthoryear {Sun and Yin}{2007}}
\bibcite{vattam2015error}{\citeauthoryear {Vattam, Aha, and Floyd}{2015}}
\bibcite{vattam2015case}{\citeauthoryear {Vattam and Aha}{2015}}
\bibcite{yin2004high}{\citeauthoryear {Yin, Chai, and Yang}{2004}}
