\relax 
\providecommand\hyper@newdestlabel[2]{}
\providecommand\HyperFirstAtBeginDocument{\AtBeginDocument}
\HyperFirstAtBeginDocument{\ifx\hyper@anchor\@undefined
\global\let\oldcontentsline\contentsline
\gdef\contentsline#1#2#3#4{\oldcontentsline{#1}{#2}{#3}}
\global\let\oldnewlabel\newlabel
\gdef\newlabel#1#2{\newlabelxx{#1}#2}
\gdef\newlabelxx#1#2#3#4#5#6{\oldnewlabel{#1}{{#2}{#3}}}
\AtEndDocument{\ifx\hyper@anchor\@undefined
\let\contentsline\oldcontentsline
\let\newlabel\oldnewlabel
\fi}
\fi}
\global\let\hyper@last\relax 
\gdef\HyperFirstAtBeginDocument#1{#1}
\providecommand\HyField@AuxAddToFields[1]{}
\providecommand\HyField@AuxAddToCoFields[2]{}
\@writefile{toc}{\contentsline {section}{\numberline {1}Introduction}{1}{section.1}}
\citation{ramirez2010probabilistic}
\@writefile{toc}{\contentsline {section}{\numberline {2}Problem Statement}{2}{section.2}}
\newlabel{sec:problemstatement}{{2}{2}{Problem Statement}{section.2}{}}
\citation{Wilkins2003}
\@writefile{toc}{\contentsline {subsection}{\numberline {2.1}Objective Function}{3}{subsection.2.1}}
\newlabel{sec:objectivefunction}{{2.1}{3}{Objective Function}{subsection.2.1}{}}
\citation{sun2007recognizing}
\citation{hong2001goal}
\citation{GeibGoldman09}
\citation{ramirez2009plan}
\citation{ramirez2010probabilistic}
\citation{roberts2014}
\@writefile{toc}{\contentsline {subsection}{\numberline {2.2}Example}{4}{subsection.2.2}}
\@writefile{toc}{\contentsline {section}{\numberline {3}Undesirable State Recognition Algorithm}{4}{section.3}}
\newlabel{sec:algorithm}{{3}{4}{Undesirable State Recognition Algorithm}{section.3}{}}
\@writefile{lof}{\contentsline {figure}{\numberline {1}{\ignorespaces An observation sequence of user actions $a1, a2, \ldots  ,ai$ transitioning initial state $I$ to a goal state $G$. Shows undesirable plans $\Pi _u$ leading to undesirable state $u1$ at state $S3$. [\textbf  {DEBUG mak}: \textit  {f is missing from this figure}]}}{4}{figure.1}}
\newlabel{fig:problem}{{1}{4}{An observation sequence of user actions $a1, a2, \ldots ,ai$ transitioning initial state $I$ to a goal state $G$. Shows undesirable plans $\Pi _u$ leading to undesirable state $u1$ at state $S3$. \debug {mak}{f is missing from this figure}}{figure.1}{}}
\@writefile{lot}{\contentsline {table}{\numberline {1}{\ignorespaces Certainty, timeliness, desirability computations for each candidate trigger action in a synthetic example. $V(a)$ is the value returned by the critical trigger multi-objective function assuming equal weighting (i.e., $\alpha =0.33$) for each candidate trigger action}}{4}{table.1}}
\newlabel{tab:metrics}{{1}{4}{Certainty, timeliness, desirability computations for each candidate trigger action in a synthetic example. $V(a)$ is the value returned by the critical trigger multi-objective function assuming equal weighting (i.e., $\alpha =0.33$) for each candidate trigger action}{table.1}{}}
\citation{richterWestphal10.jair.LAMA}
\@writefile{lof}{\contentsline {figure}{\numberline {2}{\ignorespaces Process for determining whether an observed action is a critical trigger action.}}{5}{figure.2}}
\newlabel{fig:components}{{2}{5}{Process for determining whether an observed action is a critical trigger action}{figure.2}{}}
\@writefile{toc}{\contentsline {subsection}{\numberline {3.1}Step 3: Run Mosaic to Produce Undesirable Plans}{5}{subsection.3.1}}
\newlabel{sec:mosaic}{{3.1}{5}{Step 3: Run Mosaic to Produce Undesirable Plans}{subsection.3.1}{}}
\@writefile{toc}{\contentsline {subsection}{\numberline {3.2}Steps 4-8: Rank Potential Triggers}{5}{subsection.3.2}}
\@writefile{toc}{\contentsline {section}{\numberline {4}Evaluation}{5}{section.4}}
\citation{ramirez2009plan}
\citation{sasse2001transforming}
\citation{howe2012psychology}
\citation{Sheyner2002}
\@writefile{lot}{\contentsline {table}{\numberline {2}{\ignorespaces Independent variables for evaluating impact of algorithm parameters and sensitivity to noisy data}}{6}{table.2}}
\newlabel{tab:exp}{{2}{6}{Independent variables for evaluating impact of algorithm parameters and sensitivity to noisy data}{table.2}{}}
\@writefile{toc}{\contentsline {subsection}{\numberline {4.1}Dependent Variables}{6}{subsection.4.1}}
\@writefile{toc}{\contentsline {subsection}{\numberline {4.2}Computer Security Domain (PAG)}{6}{subsection.4.2}}
\citation{ramirez2009plan}
\citation{hoffman2003ff}
\@writefile{lof}{\contentsline {figure}{\numberline {3}{\ignorespaces Observation trace from a human subject annotated with relation to undesirable state plans (colored connected dots) and ideal critical triggers (in dotted ovals)}}{7}{figure.3}}
\newlabel{fig:trace}{{3}{7}{Observation trace from a human subject annotated with relation to undesirable state plans (colored connected dots) and ideal critical triggers (in dotted ovals)}{figure.3}{}}
\@writefile{toc}{\contentsline {subparagraph}{PAG Results}{7}{section*.6}}
\@writefile{toc}{\contentsline {subsection}{\numberline {4.3}Benchmark Domains}{7}{subsection.4.3}}
\@writefile{toc}{\contentsline {subparagraph}{Trace Generation}{7}{section*.7}}
\@writefile{toc}{\contentsline {section}{\numberline {5}Benchmark Results}{8}{section.5}}
\@writefile{toc}{\contentsline {subsection}{\numberline {5.1}Ignoring Extraneous Actions}{8}{subsection.5.1}}
\newlabel{subsec:ignoreea}{{5.1}{8}{Ignoring Extraneous Actions}{subsection.5.1}{}}
\@writefile{toc}{\contentsline {subsection}{\numberline {5.2}Flagging Undesirable Actions}{8}{subsection.5.2}}
\@writefile{lot}{\contentsline {table}{\numberline {4}{\ignorespaces Flagged UP\% for traces with 0\% EA and 100\% PO for \texttt  {Block-words} (\texttt  {bw}), \texttt  {IPC-grid+} (\texttt  {ipc}), \texttt  {Logistics} (\texttt  {log}), and \texttt  {Grid-Navigation} (\texttt  {nav}) domains}}{8}{table.4}}
\newlabel{tab:flagupupperbound}{{4}{8}{Flagged UP\% for traces with 0\% EA and 100\% PO for \texttt {Block-words} (\texttt {bw}), \texttt {IPC-grid+} (\texttt {ipc}), \texttt {Logistics} (\texttt {log}), and \texttt {Grid-Navigation} (\texttt {nav}) domains}{table.4}{}}
\citation{schmidt1978plan}
\citation{kautz1986generalized}
\citation{carberry2001plan}
\citation{GeibGoldman09}
\citation{lesh1996}
\citation{bauer1998acquisition}
\citation{hong2001goal}
\citation{sun2007recognizing}
\citation{blum1997fast}
\citation{ramirez2009plan}
\citation{ramirez2010probabilistic}
\citation{vattam2015error}
\citation{boddy2005course}
\citation{sohrabi2013hypothesis}
\citation{lucangeli2010attack}
\citation{hoffmann15}
\citation{GeibGoldman09}
\@writefile{lot}{\contentsline {table}{\numberline {3}{\ignorespaces Mean Ignored EA\% (and standard deviation) for benchmark domains for levels of EA\% in observation trace and objective weight assignment classes}}{9}{table.3}}
\newlabel{tab:ignoredeaforlevels}{{3}{9}{Mean Ignored EA\% (and standard deviation) for benchmark domains for levels of EA\% in observation trace and objective weight assignment classes}{table.3}{}}
\@writefile{toc}{\contentsline {subsection}{\numberline {5.3}Computational Overhead}{9}{subsection.5.3}}
\@writefile{lot}{\contentsline {table}{\numberline {6}{\ignorespaces Mean CPU time in seconds for problem factors for each domain. $\Delta $ is the difference between the min and max times for each domain.}}{9}{table.6}}
\newlabel{tab:cpu2}{{6}{9}{Mean CPU time in seconds for problem factors for each domain. $\Delta $ is the difference between the min and max times for each domain}{table.6}{}}
\@writefile{toc}{\contentsline {section}{\numberline {6}Related Work}{9}{section.6}}
\citation{papadimitriou2015goals}
\@writefile{lot}{\contentsline {table}{\numberline {5}{\ignorespaces Mean Flagged UP\% (and standard deviation) for benchmark domains for levels of PO\% in observation trace and objective weight assignment classes}}{10}{table.5}}
\newlabel{tab:flaggedupforlevels}{{5}{10}{Mean Flagged UP\% (and standard deviation) for benchmark domains for levels of PO\% in observation trace and objective weight assignment classes}{table.5}{}}
\@writefile{toc}{\contentsline {section}{\numberline {7}Conclusion}{10}{section.7}}
\bibstyle{aaai}
\bibdata{refsicaps17.bib}
\bibcite{bauer1998acquisition}{\citeauthoryear {Bauer}{1998}}
\bibcite{blum1997fast}{\citeauthoryear {Blum and Furst}{1997}}
\bibcite{boddy2005course}{\citeauthoryear {Boddy \bgroup et al\unhbox \voidb@x \hbox {.}\egroup }{2005}}
\bibcite{carberry2001plan}{\citeauthoryear {Carberry}{2001}}
\bibcite{GeibGoldman09}{\citeauthoryear {Geib and Goldman}{2009}}
\bibcite{hoffman2003ff}{\citeauthoryear {Hoffmann}{2003}}
\bibcite{hoffmann15}{\citeauthoryear {Hoffmann}{2015}}
\bibcite{hong2001goal}{\citeauthoryear {Hong}{2001}}
\bibcite{howe2012psychology}{\citeauthoryear {Howe \bgroup et al\unhbox \voidb@x \hbox {.}\egroup }{2012}}
\bibcite{kautz1986generalized}{\citeauthoryear {Kautz and Allen}{1986}}
\bibcite{lesh1996}{\citeauthoryear {Lesh and Etzioni}{1996}}
\bibcite{lucangeli2010attack}{\citeauthoryear {Obes, Sarraute, and Richarte}{2010}}
\bibcite{papadimitriou2015goals}{\citeauthoryear {Papadimitriou \bgroup et al\unhbox \voidb@x \hbox {.}\egroup }{2015}}
\bibcite{ramirez2009plan}{\citeauthoryear {Ram{\i }rez and Geffner}{2009}}
\bibcite{ramirez2010probabilistic}{\citeauthoryear {Ram{\i }rez and Geffner}{2010}}
\bibcite{richterWestphal10.jair.LAMA}{\citeauthoryear {Richter and Westphal}{2010}}
\bibcite{roberts2014}{\citeauthoryear {Roberts, Howe, and Ray}{2014}}
\bibcite{sasse2001transforming}{\citeauthoryear {Sasse, Brostoff, and Weirich}{2001}}
\bibcite{schmidt1978plan}{\citeauthoryear {Schmidt, Sridharan, and Goodson}{1978}}
\bibcite{Sheyner2002}{\citeauthoryear {Sheyner \bgroup et al\unhbox \voidb@x \hbox {.}\egroup }{2002}}
\bibcite{sohrabi2013hypothesis}{\citeauthoryear {Sohrabi, Udrea, and Riabov}{2013}}
\bibcite{sun2007recognizing}{\citeauthoryear {Sun and Yin}{2007}}
\bibcite{vattam2015error}{\citeauthoryear {Vattam, Aha, and Floyd}{2015}}
\bibcite{Wilkins2003}{\citeauthoryear {Wilkins, Lee, and Berry}{2003}}
